
  Дисковая операционная система для БК0010, БК0011, БК0011М


     ##┐      ###┐   ###┐ ########┐     ######┐     ######┐
    ####┐     ###│   ###│ ###┌──####┐ ####┌─####┐ ####┌─####┐
   ######┐    ####┐  ###│ ###│   ###│ ###┌┘  ###│ ###┌┘  ###│
  ###┌─###┐   #####┐ ###│ ###│   ###│ ###│   ###│ ####┐  └──┘
 ###┌┘  ###┐  ###│##┐###│ ###│   ###│ ###│   ###│ └─######┐
 ###│   ###│  ###│ #####│ ###│   ###│ ###│   ###│   └───####┐
 ##########│  ###│  ####│ ###│   ###│ ###│   ###│ ###┐   ###│
 ###┌───###│  ###│   ###│ ###│  ####│ ####┐ ####│ ####┐ ####│
 ###│   ###│  ###│   ###│ ########┌─┘ └─######┌─┘ └─######┌─┘
 └──┘   └──┘  └──┘   └──┘ └───────┘     └─────┘     └─────┘

                    Версия 3.30 от 20.6.97


       (C) 1993-97 А.М.Надежин, С.Е.Камнев, Д.К.Крылов


===============================================================


     Если Вы хорошо знакомы с ANDOS V3.1 единственное описание,
которое Вам стоит прочитать кроме этого - ANDOS330.VXT.  В этом
файле  Вы  можете найти для себя полезным комплект поставки AN-
DOS,  рекомендации по работе с дисками ANDOS на PC  и схему пе-
ределки контроллера дисководов.

                         ┌───────────┐
 ┌───────────────────────┤ ВНИМАНИЕ! ├────────────────────────┐
 │                       └───────────┘                        │
 │  Включать и выключать питание БК и дисковода можно только  │
 │  при открытом дисководе. Невыполнение этого правила может  │
 │  привести к потере информации и сбоям на дискe.            │
 │                                                            │
 │  Из-за ошибки в разводке печатной платы блока КМ ANDOS не  │
 │  может работать на БК0011М с блоком КМ. Рекомендуем  либо  │
 │  не использовать блок КМ, либо доработать его,  перерезав  │
 │  дорожку от контакта B1 разъема МПИ снизу платы блока КМ.  │
 │                                                            │
 │  Рекомендуем Вам перед тем, как начать работать с  ANDOS,  │
 │  защитить диск ANDOS от записи, заклеив защитный вырез на  │
 │  дискете любым непрозрачным материалом и сделать  резерв-  │
 │  ную копию системы на другом диске программой XEROX2.      │
 │                                                            │
 └────────────────────────────────────────────────────────────┘

     ANDOS загружается в начале каждого сеанса работы с  компь-
ютером. Загрузка системы подробно описана в памятке,  вложенной
в конверт системной дискеты.
     На протяжении всего сеанса работы система остается в памя-
ти (для БК0010 это дополнительное ОЗУ), благодаря чему  появля-
ется возможность обращаться к диску из любых  прикладных  прог-
рамм, и отпадает необходимость перезагружать ANDOS после выхода
из программы.
     В отличии от ядра ANDOS, в памяти хранится не вся оболочка
Disk MASTER ]I[, а лишь ее основная (резидентная) часть. Другая
ее часть (оверлейная) подгружается с диска по мере необходимос-
ти (которая наступает при обращении к любой из функций дополни-
тельного меню). Всвязи с этим для нормальной работы Disk MASTER
необходимо, чтобы файл ANDOS.SYS всегда был  доступен  системе.
Этого можно добиться одним из следующих способов:

     - оснастить Вашу БК винчестером
     - иметь два дисковода с системным диском в одном из них
     - если у Вас БК0011М давать команду "OVL" в начале каждого
       сеанса работы для установки оверлея на виртуальный диск
     - скопировать на все рабочие диски  файл  ANDOS.SYS  таким
       образом, чтобы этот файл обязательно был  последователь-
       ным и находился в начале диска. Проще всего это сделать,
       скопировав ANDOS.SYS на чистый диск, и уже потом записав
       на него рабочие файлы.  Более сложный вариант:  скопиро-
       вать на какой-нибуть другой диск файлы  из  первых  23-х
       кластеров, записать  ANDOS.SYS и переписать файлы назад.
       Проверить правильность установки ANDOS.SYS можно, сделав
       диск системным (командой "MakeBoot" программы ANFORM).

     К сожалению в некоторых (обычно игровых) программах  выход
не предусмотрен. В этом случае придется выключать  компьютер  и
перезагружать систему. Чтобы избежать этого недостатка рекомен-
дуется установить в контроллере кнопку "Reset", которая  позво-
лит выйти в ANDOS из любой программы (см. ПРИЛОЖЕНИЕ 2). Однако
для выхода из утилит ANDOS и  программ,  написанных  для  ANDOS
кнопкой перезапуска пользоваться нежелательно, так  как  многие
из них во время своей работы изменяют ANDOS и ее системные  пе-
ременные, которые восстанавливаются только при программном  вы-
ходе.

                Содержание дискеты ANDOS V3.30
                ~~~~~~~~~~~~~~~~~~~~~~~~~~~~~~
A:\
├ANDOS V3.30   Подкаталог с системными файлами ANDOS
│├ANDOS.SYS    ДОС ANDOS V3.30 и оболочка Disk MASTER ]I[
│├HELP.M       Модуль подсказки Disk Master
│├USER.M       Модуль меню пользователя
│├OVL.M        Модуль установки оверлея оболчки на вирт.диск
│├MASTER       Программа восстановления оболочки
│└MLIST.TXT    Список файлов, копируемых OVL.M на VDisk
│
├Утилиты       Подкаталог с утилитами ANDOS
│├ANSETUP      Утилита настройки параметров дисководов
│├ANFORM       Программа форматирования дискет
│├ARC3         Копировщик с кассет на диски
│├CONTXT       Конвертер текстов в формат PC и обратно
│├ANKEY        Редактор программируемых ключей
│└UNERASE      Программа восстановления удаленных файлов
│
├Описания      Подкаталог с описаниями ANDOS и утилит
│├README.VXT   Вводное описание ANDOS V3.30
│├ANDOS330.VXT Описание версии 3.30
│├ANDOS.VXT    Описание ядра ANDOS
│├MASTER.VXT   Описание оболочки Disk MASTER ]I[
│├ANUTILS.VXT  Описание утилит ANDOS
│├PROFI.VXT    Инструкция для профессионала
│├ANTECH.VXT   Техническое описание ANDOS
│├MASTECH.VXT  Техническое описание Disk MASTER
│└RUNME        Самозапускаемая начальная инструкция
│
├Программы     Подкаталог с различными программами
│├EDALT        Подкаталог с текстовым редактором EDALT
││├EDALT3M     EDALT3 для принтеров с кодировкой КОИ7 и КОИ8
││├EDALT3EM    EDALT3 для принтеров с основной кодировкой ГОСТ
││├EDALT3M.EDP Описание редактора EDALT
││└ALTHELP.EDP Рекомендации по работе с принтером
│├DESS         Подкаталог с редактором дисков DESS V2.9
││├DESS        Редактор дисков DESS V2.9
││├FILES.DSS   Модуль записи участка диска в файл
││├MACRO.DSS   Модуль макрокоманд
││├ASSEMB.DSS  Модуль дизассемблера
││├EDFAT.DSS   Модуль редактора FAT
││└DESS.DOC    Описание программы DESS
│├Для IBM      Подкаталог с программами для IBM
││├900.COM     Драйвер для IBM, позволяющий читать диски ANDOS
││├SLOW.COM    Программа, замедляющая работу IBM для чтения
│││            дисков ANDOS на PC с BIOS'ом AWARD
││├BK-PC.EXE   Конвертер текстов EDASP и Vortex в формат PC
││└PC-BK.EXE   Конвертер текстов PC в формат БК
│├XEROX2       Программа копирования дисков "один-к-одному"
│├XEROX2.DOC   Описание программы XEROX
│├DPRESS       Архиватор DPRESS (описание встроено)
│├DPRESS.OVL   Оверлей архиватора
│├DPRESS.HLP   Модуль описания и заставки архиватора
│├MSDOS_EM     Эмулятор для чтения дисков MS-DOS
│├RT-11_EM     Эмулятор для чтения дисков RT-11
│├MS&RT_EM.EDP Описание эмуляторов
│├A16serv      Программа управления контроллерами А16 и А16М
│├BKFONT       Редактор шрифтов
│└BKFONT.DOC   Описание редактора шрифтов
│
│Языки         Подкаталог, содержащий языки Бейсик и Фокал
│├DBASIC       Дисковый Бейсик для БК0010-01
│├DBASIC.EDP   Описание дискового Бейсика
│├ANFOCAL8     Дисковый Фокал с печатью на любых принтерах
│├ANFOCAL8.D   Дисковый Фокал с печатью на принтере D100
│├BASIC16M     Бейсик для БК0010 с контроллером "Альтпро А16М"
│├BASIC16M.EDP Описание BASIC16M
│├ANBASIC.11M  Дисковый Бейсик для БК0011М
│├ANBASIC.OVL  Подгружаемый модуль для БК0011М без ПЗУ Бейсика
│├ANBASIC.VXT  Описание дискового Бейсика для БК0011М
│└FOCAL11M     Дисковый Фокал для БК0011М
│
├Шрифты        Подкаталог со шрифтами
│├10.BKF       Стандартный шрифт БК0010
│├COLOR2.BKF   Оцветненный шрифт
│├FUTURE.BKF   "Компьютерный" шрифт
│├RTV.BKF      Крупный шрифт
│├PC2.BKF      Шрифт IBM PC
│├TW+.BKF      Шрифт пишущей машинки
│├SOLOVEY.BKF  "Остроугольный" шрифт
│├FONT.BKF     "Рукописный" шрифт
│├121+.BKF     "Ящичный" (ЛАТ) / "Старорусский" (РУС) шрифт
│├GOTHIC.BKF   "Готический"(ЛАТ) / "Старорусский"(РУС) шрифт
│└FONTS.ARJ    Архивный файл (в формате DPRESS) со шрифтами
│ ├11.BKF       Стандартный шрифт монитора БК0011М
│ ├SUPER.BKF    Модифицированный шрифт монитора БК0011М
│ ├COLOR1.BKF   Оцветненный красный шрифт
│ ├NPTS-10.BKF  Вариант обычного шрифта
│ ├STANDART.BKF Вариант обычного шрифта
│ ├DIRUS.BKF    Вариант обычного шрифта
│ ├RDR.BKF      Ужирненный шрифт БК0010
│ ├PC1.BKF      Стандартный шрифт IBM PC
│ ├SINCLAI+.BKF Мелкий жирный шрифт компьютера ZX Spectrum
│ ├SINCLAIR.BKF Мелкий шрифт компьютера ZX Spectrum
│ ├SCRIPT.BKF   Шрифт пишущей машинки
│ ├ПИШМАШ.BKF   Еще один шрифт пишущей машинки
│ ├SMALL.BKF    Мелкий шрифт
│ ├SMALL+.BKF   Мелкий жирный шрифт
│ ├SPALF.BKF    Крупный жирный шрифт
│ ├COMP.BKF     Наклонный тонкий шрифт
│ ├SQUARE.BKF   "Квадратный" шрифт
│ ├SQUARE+.BKF  Жирный "квадратный" шрифт
│ ├MYTYPE.BKF   "Круглый" жирный шрифт
│ ├OUTLINE.BKF  Контурный шрифт
│ ├NIKITA.BKF   Ажурный шрифт
│ ├MODERN.BKF   Жирный наклонный "рукописный" шрифт
│ ├DEATH.BKF    "Смертельный" шрифт
│ ├IZVRAT.BKF   Шрифта с "перепутанными" РУС и ЛАТ символами
│ ├CSIDOS.BKF   Цветной шрифт из CSIDOS
│ ├BKFONT.BKF   Шрифт, похожий на шрифт IBM PC
│ ├BKFONT+.BKF  Шрифт, похожий на шрифт IBM PC
│ └RFONT1.BKF   Высокий узкий шрифт
│
├FreeWare      Подкаталог со свободно распространяемыми прог.
│├TC           Программа конвертир.(БК<->IBM) длинных текстов
│├TC.DOC       Описание программы TC
│├SPR3.M       Подгрузка просмотра графических файлов
│├SPR3.VXT     Описание SPR3.M
│├BKF.M        Подгрузка просмотра шрифтов БК
│├VXF.M        Подгрузка просмотра шрифтов Vortex V4.0
│├CMF.M        Подгрузка просмотра шрифтов Comfort
│├FONTVIEW.VXT Описание подгрузок BKF.M, VXF.M, CMF.M
│├CSI-EM       Эмулятор для чтения дисков CSI-DOS
│├CSI-EM.DOC   Описание CSI-EM
│├RDR14        Монитор просмотра текстов
│├RDR14.DOC    Описание RDR14
│├MAPFAT       Программа просмотра FAT
│├VEX2         Конвертер текста Vortex -> Edasp
│├DIR          Программа записи каталога диска в файл
│└R120000      Программа переноса ANDOS в скрытую страницу
│               (для запуска программ с адреса 120000)
│
├Информация    Подкаталог с текстами об аппаратных средствах
│├HDD_FAQ.EDP  Винчестер: ответы на часто задаваемые вопросы
│├MODEM.VXT    Модем: назначение, возможности, комплектность
│└A16TECH      Техническое описание контроллера Альтпро А16М
│
├Дисковод B:   Ссылка для перехода на диск B:
│
└ANPRICE.VXT   Каталог программных и аппаратных средств, кото-
               рые можно приобретсти отдельно.

     Внмание! На  дискете  ANDOS  V3.30  содержится 99 файлов и
подкаталогов и всего 9  кластеров свободного места.  При опера-
ции поиска файла по всем разделам винчестера на системном диске
создается временный файл FINDLIST.DAT  с  результатами  поиска,
поэтому следите за тем, чтобы на системном диске оставалось хо-
тя-бы одно свободное место для имени файла и несколько  свобод-
ных кластеров.

                Просмотр и печать документации
                ~~~~~~~~~~~~~~~~~~~~~~~~~~~~~~
     Для того чтобы просмотреть или распечатать любой из файлов
документации, поставляемых с ANDOS необходимо установить маркер
на нужный файл (все файлы документации имеют расширение .VXT) и
одновременно нажать "АР2" и "3".
     Описания ANDOS, утилит и оболочки Disk MASTER располагают-
ся в подкаталоге "Описания", для входа в который нужно  устано-
вить маркер на его имя и нажать ВВОД.
     Все файлы описаний представляют из себя тексты  в  формате
"Vortex".

     Просматривать текст можно построчно,  с помощью клавиш "↑"
и "↓" или постранично,  с помощью клавиш "<-" и "->". Для пере-
хода в начало или конец текста  используются  сочетания  клавиш
"АР2"/"↑" и "АР2"/"↓".

     Перед печатью текста необходимо  настроить  ANDOS  на  Ваш
принтер (см. ПРИЛОЖЕНИЕ 1).
     Печать текста на  принтере  запускается  нажатием  клавиши
"П". При этом печать начинается с первой строки экрана. Для пе-
чати всего текста перейдите в начало текста. Во время печати на
принтерах, не имеющих псевдографики, символы псевдографики  за-
меняются похожими по начертанию алфавитными символами.  Остано-
вить печать можно, нажав клавишу КТ.

     Для того,  чтобы  распечатать  описания на PC,  необходимо
преобразовать файлы описаний в формат PC.  Это можно сделать  с
помощью программы TC (см.  TC.DOC), либо непосредственно на PC,
программой BK-PC.EXE


               Работа с дисками ANDOS на PC
               ~~~~~~~~~~~~~~~~~~~~~~~~~~~~
     Особенности работы с дисками ANDOS на PC подробно  описаны
в файле ANDOS.VXT.  Остановлюсь лишь на типичных проблемах. Как
известно,  для чтения дисков ANDOS необходимо загружать  на  PC
программу  типа  800.com,  но  что делать,  если у Вас нет этой
программы?  В  комплект  поставки  ANDOS   включена   программа
900.com, которую Вы можете перенести на PC следующим образом:
     1. Отформатируйте в ANDOS дискету
     2. Запишите на нее 900.com (если Вы хотите записать на эту
дискету еще что-нибуть,  проследите,  чтобы 900.com был записан
первым).
     3. На PC скопируйте 900.com с этой дискеты (этот файл нас-
только маленький, что скопируется без запуска 800).
     4. Запустите 900.com.
     К сожалению в последнее время  большинство  PC-совместимых
компьютеров оснащается BIOS'ом фирмы Award (его легко узнать по
появляющейся при включении компьютера в правом верхнем углу эк-
рана  и  плавно  гаснущей картинке "Energy Star") имеющем еще с
незапамятных времен ошибку,  приводящую к невозможности  чтения
дисков ANDOS. Эта ошибка именуется "Drive Not Ready" (в отличии
от ошибки "Sector Not Found",  когда не запущен 800  или  900).
Для того,  чтобы заставить компьютер с таким BIOS'ом работать с
ANDOS'овскими дисками нужно любым способом "затормозить" работу
компьютера (кнопка "Turbo" тут не поможет). Для этого можно ис-
пользовать  любую  программу-замедлитель,  например  простейшую
программу  slow.com,  включенную в комплект ANDOS.  Возможно ее
придется запустить несколько раз подряд прежде,  чем диск ANDOS
начнет  нормально читаться.  В качестве замедлителя можно также
использовать Windows 3.1.
     Для общения с PC я рекомендую пользоваться отдельными дис-
ками,  так  как есть опасность,  что Вы испортите информацию на
своем рабочем диске, при попытке что-нибуть делать с ним на PC.

                            Шрифты
                            ~~~~~~
     В комплект поставки ANDOS включены 38 шрифтов разных авто-
ров. 10 шрифтов находятся в каталоге "Шрифты". Вы можете загру-
зить их на БК0011М  нажав  "<-┘",  стоя  на  имени  шрифта.  На
БК0010-01  с контроллером "Альтпро А16М" шрифты могут быть заг-
ружены программой BASIC16M.  Вернуться  к  стандартному  шрифту
можно, загрузив шрифт 10.BKF. На БК0011М загруженный шрифт мож-
но сохранить командой "Save" меню "Setup".
     Остальные 28 шрифтов заархивированы программой DPRESS. Для
того чтобы разархивировать их запустите программу  DPRESS,  за-
пустите распаковщик,  нажмите "R", нажмите "<-┘" на появившемся
имени архива FONTS.ARJ, после чего введите имя дисковода на ко-
торый  Вы  собираетесь распаковывать шрифты (на системном диске
ANDOS места для них недостаточно),  выделите  нужные  шрифты  и
приступайте к распаковке, для чего нажмите "<-┘".

             Совместимость с предыдущими версиями
             ~~~~~~~~~~~~~~~~~~~~~~~~~~~~~~~~~~~~
     ANDOS V3.30 полностью совместима с предыдущими версиями на
уровне системных запросов, описанных в техническом руководстве,
поэтому любые программы и утилиты для  предыдущих  версий,  ис-
пользующие  эти запросы будут нормально функционировать в ANDOS
V3.30, однако некоторые программы, использующие прямые  обраще-
ния к подпрограммам ANDOS предыдущих версий работать не смогут.

                    Авторское сопровождение
                    ~~~~~~~~~~~~~~~~~~~~~~~
     Зарегистрированные пользователи ANDOS  получают  право  на
консультации,  бесплатное  получение  новых  утилит  и описаний
внутри одной версии,  а также льготы на приобретение новых вер-
сий ANDOS.
     Зарегистрированным считается пользователь, имеющий дискету
ANDOS V3.30 с фирменной наклейкой и серийным  номером, а  также
СЕРТИФИКАТ РЕГИСТРАЦИИ (при продаже он вкладывается в конверт с
дискетой).
     Пользователь имеет право копирования операционной  системы
для своих целей, однако в случае  распространения  операционной
системы он лишается права на авторское сопровождение.
"""""""""""""""""""""""""""""""""""""""""""""""""""""""""""""""

ПРИЛОЖЕНИЕ 1.


       Подключение к БК и настройка различных принтеров
       ~~~~~~~~~~~~~~~~~~~~~~~~~~~~~~~~~~~~~~~~~~~~~~~~
     К БК0010(-01) или БК0011М может быть подключен любой прин-
тер с параллельным  интерфейом  ИРПР  или  ИРПР-М  (Centronix).
Принтер подключается к разъему "УП" напрямую  или  через  "БЛОК
КМ" ("БЛОК КПУ"). Предпочтительно (и более удобно)  подключение
принтера напрямую.

┌───────┬────┬────┬─────┬─────────────────────────────────────┐
│Контакт│Конт│Сиг.│Сигн.│      Контакт разъема принтера       │
│разъема│"ПУ"│пор-│прин-├─────┬────┬────┬────┬─────┬────┬─────┤
│"УП" БК│ КМ │та  │тера │6312 │6313│6337│6329│D100 │УПЗ │EPSON│
├───────┼────┼────┼─────┼─────┼────┼────┼────┼─────┼────┼─────┤
│  A16  │  1 │BД00│DATA1│  2  │  3 │  3 │B-05│  2  │B-14│  2  │
│  A13  │  3 │BД01│DATA2│  3  │  5 │  5 │B-06│  3  │B-13│  3  │
│  B12  │  5 │BД02│DATA3│  4  │  7 │  7 │B-07│  4  │B-12│  4  │
│  B10  │  7 │BД03│DATA4│  5  │  9 │  9 │B-08│  5  │B-11│  5  │
│  B5   │  9 │BД04│DATA5│  6  │ 11 │ 11 │B-09│  6  │B-10│  6  │
│  B7   │ 11 │BД05│DATA6│  7  │ 13 │ 13 │B-10│  7  │B-08│  7  │
│  B6   │ 13 │BД06│DATA7│  8  │ 15 │ 15 │B-11│  8  │B-09│  8  │
│  A7   │ 15 │BД07│DATA8│  9  │ 17 │ 17 │B-12│  9  │B-07│  9  │
│  A28  │ 17 │ВД08│STROB│  1  │ 23 │  1 │B-02│  1  │B-06│  1  │
│  B31  │ 19 │ВВ08│BUSY │ 11  │ 21 │ 21 │B-03│ 14  │B-04│  11 │
│A18,B18│2-24│ОБЩ.│GND  │24,25│4-28│2-24│A-01│19-32│A7,8│19-30│
└───────┴────┴────┴─────┴─────┴────┴────┴────┴─────┴────┴─────┘
     Принтеры D100 и D100M подключаются одинаково.
     Для принтеров МС6313, МС6337 и разъема блока КМ общий кон-
такт подключается к четным контактам в указанном диапазоне  (не
обязательно ко всем).
     Управляющие контакты 17 и 18 разъема "ПУ" блока КМ  соот-
ветствуют сигналам ВД14 и ВВ14 соответственно.


               Установка переключателей принтера
               ~~~~~~~~~~~~~~~~~~~~~~~~~~~~~~~~~
     В  таблице  приводятся  параметры,   а   также   установка
DIL-переключателей для некоторых, наиболее распространенных ти-
пов принтеров.
     Для обозначения положений переключателей применены  графи-
ческие обозначения, например:

    ┌───┐                              ┌───┐
    │ A │ клювик переключателя вверх   │ | │ клювик вниз
    │ | │                              │ A │
    └───┘                              └───┘
    ┌────┐                             ┌────┐
    │ =- │- клювик влево               │ -= │- клювик вправо
    └────┘                             └────┘
┌───────────────┬────────────────────────────┬─────────┬─────┐
│ Тип принтера  │  Установка переключателей  │Кодировка│Вывод│
├───────────────┼────────────────────────────┼─────────┼─────┤
│МС6312         │     Переключателей нет     │  КОИ8   │ПРЯМ.│
├───────────────┼────────────────────────────┼─────────┼─────┤
│МS6312, MP6312 │ |||||A||  Вкл. принтер при │  IBM    │ПРЯМ.│
│с псевдографи- │ AAAAA|AA  нажатых клавишах │         │     │
│     кой       │ "On Line"  и  "Line Find". │         │     │
├───────────────┼────────────────────────────┼─────────┼─────┤
│МS6312, MP6312 │ |||||A||  Включать принтер │  КОИ8   │ПРЯМ.│
│без псевдограф.│ AAAAA|AA  не нажимая клав. │         │     │
├───────────────┼────────────────────────────┼─────────┼─────┤
│МС6312M, РАДИЙ,│ |||||||A                   │  IBM    │ИНВ. │
│RADII, POCET   │ AAAAAAA|                   │         │     │
├───────────────┼────────────────────────────┼─────────┼─────┤
│МС6313/LX/FX800│ |A||A||A AAAAAAAA |||A|||| │  IBM    │ПРЯМ.│
│               │ A|AA|AA| |||||||| AAA|AAAA │         │     │
├───────────────┼────────────────────────────┼─────────┼─────┤
│МС6313/LX/FX800│ |A||A||A AAAAAAAA |||||||| │  КОИ8   │ПРЯМ.│
│без псевдограф.│ A|AA|AA| |||||||| AAAAAAAA │         │     │
├───────────────┼────────────────────────────┼─────────┼─────┤
│CM6337         │ |AAA||AA  |AAAAA           │  ГОСТ   │ИНВ. │
│               │ A|||AA||  A|||||           │         │     │
├───────────────┼────────────────────────────┼─────────┼─────┤
│robotron CM6329│ 5  6  7  8  9  10 11 12 13 │  КОИ7   │ПРЯМ.│
│robotron K6311-│ -= -= =- =- =- =- -= =- -= │         │     │
│         k6314 │ =- =- =- -= -= =- -= -= =- │         │     │
├───────────────┼────────────────────────────┼─────────┼─────┤
│D100           │ AA|AA|||  К    К  AA|A|||A │  КОИ8   │ПРЯМ.│
│               │ ||A||AAA 100  201 ||A|AAA| │         │     │
├───────────────┼────────────────────────────┼─────────┼─────┤
│D100M          │ A|||A||| K1    K2 |AAA|A|| │  КОИ8   │ПРЯМ.│
│               │ |AAA|AAA          A|||A|AA │         │     │
├───────────────┼────────────────────────────┼─────────┼─────┤
│УПЗ            │ ???                        │  ГОСТ   │ИНВ. │
│               │                            │         │     │
├───────────────┼────────────────────────────┼─────────┼─────┤
│EPSON LX800,   │ +|||+|||  |+++ off         │  IBM    │ИНВ. │
│FX800, FX1000  │ |+++|+++  +||| on          │         │     │
└───────────────┴────────────────────────────┴─────────┴─────┘
     Некоторые принтеры поддерживают несколько кодировок,  од-
нако только в альтернативной (IBM) и основной (ГОСТ) кодировке
возможна печать символов псевдографики.

                Настройка ANDOS на тип принтера
                ~~~~~~~~~~~~~~~~~~~~~~~~~~~~~~~
     Запустите пункт "Printers" меню "Setup" (KT <- P). Выбери-
те в появляющихся меню кодовую таблицу и тип вывода в соответс-
твии с приведенной выше таблицей,  после чего выберите пункт "и
на Диске".


ПРИЛОЖЕНИЕ 2.

                  Подключение кнопки "Reset".
                  ~~~~~~~~~~~~~~~~~~~~~~~~~~~
     Кнопка "Reset" подключается между контактами А1 и А2 разъ-
ема "МПИ".
     На БК0011М рекомендуется сделать доработку для  переключе-
ния режима кнопки "Reset", после которой обычное нажатие кнопки
"Reset" будет приводить к полному перезапуску БК0011М, а  нажа-
тие "Reset" при нажатой клавише "СУ" будет просто перезапускать
монитор БК0010 и ANDOS (как и на БК0010).


                   Схема доработки БК0011М

    [Автор - Д. Сотченко (RDC), дизайн - М. Королев (MKT)]

Вид правой нижней части    ┌───────────────────╥╥─┐
платы БК0011М     ┌────────┘                   ║║ │
                  │          ┌──────┐          ║║ │
                 ┌┘          ┤ 1801 ├       ║║ ║║ │
                 │           ┤ ВП1  ├       ║║    │
               ┌─┘           ┤      ├       ║║ ║║ │
               │             ┤ 014  ├          ║║ │
         ┌─────┘             └──────┘          ║║ │
         │                                        │
        ┌┘                                        │
        │                                ┌┬┐      │
        │               ┌┬┐    ┌┬┐       │ │      │
        │               │ │    │ │       │ │      │
     ┌──┘               │ │    │ │       └─┘D39 (K155TM2)
    ┌┘                  └─┘    └─┘     ┌┐         │
    │                   D32    D34     └┘ R37     │
   ┌┘                (555ЛИ6) (555ЛН2)          о │
   └──────────────────────────────────────────────┘


                  ┌────┬───┬────┐
                  ┤ о  └───┘    ├─
                 ─┤             ├
                  ┤   1801ВП1   ├─
                 ─┤     014     ├

                       . . .
             ┌─→ ─┤18           ├
             │    ┤             ├─
             │   ─┤             ├
             │    ┤             ├─
             │    └─────────────┘
       -     │
          ---+--- ←─ любой германиевый диод (Д2, Д9 и т.п.)
            /│\
           / │ \            ┌──┬──┬──┐    ┌─┐ 1.5к
          ---+---          ─┤1 └──┘14├─   │┌┴┐
       +     │             ─┤2 555 13├─ ←─┘│/│  Предварительно
             │             ─┤3 ЛН2 12├─    └┬┘  с помощью иглы
             │             ─┤4     11├─ ←───┤   перерезать до-
             │             ─┤5     10├─     │   рожку,  идущую
             │             ─┤6      9├─     │   от 11 к 13 вы-
             │             ─┤7 D34  8├─     │   воду  D34  под
             │              └────────┘      │   микросхемой.
             └──────────────────────────────┘

ПРИЛОЖЕНИЕ 3.

           Переделка контроллера дисководов на БК11М
           ~~~~~~~~~~~~~~~~~~~~~~~~~~~~~~~~~~~~~~~~~
     Цель переделки - подключение контроллера к кварцевому ге-
нератору БК, после чего исчезают сбои и зависания при  обраще-
нии к дисководам.

                 ┌───────────────────────────┐
┌────────────────┤    РАЗЪЕМ К ДИСКОВОДАМ    ├────────────────┐
│                └───────────────────────────┘                │
│                                                             │
│ ┌───────────┐                                               │
│ │    ┌───┐  │                 ПЛАТА КОНТРОЛЛЕРА ДИСКОВОДОВ  │
│ │    ┤   ├  │   ┌┴┐┌┴┐┌┴┐                                   │
│ │    ┤   ├──┘ 6 │Х││Х││X│                                   │
│ │    ┤   ├──┐ 5 │R││R││C│                                   │
│ │    ┤ЛА3├──┤ 4 └┬┘└┬┘└┬┘                                   │
│ │    ┤   ├  │                                               │
│ │    ┤   ├  │                                               │
│ │    ┤ ┌─┼  │                                               │
│ │    └─┴─┘  │                                               │
│ │ ┌────┐    │                                               │
│ │ │ Х  ├─   ├─────────────────────────┐                     │
│ │ │ Q  ├────┘                         │                     │
│ │ └────┘                              │                     │
│ │┌┴─┴─┴─┴─┴─┴─┴┬┴┐                    │                     │
│ ││     ТМ9     └─┤                    │                     │
│ │└┬─┬─┬─┬─┬─┬─┬─┬┘                    │                     │
│ ├─┘9                                  │                     │
│ │┌┴─┴─┴─┴─┴─┴─┴┬┴┐                    │                     │
│ ││     ТМ9     └─┤  ┌┴─┴─┴─┴─┴─┴┬┴┐   │                     │
│ │└┬─┬─┬─┬─┬─┬─┬─┬┘  │    ТМ2    └─┤   │                     │
│ └─┤9                └┬─┬─┬─┬─┬─┬─┬┘   │                     │
│   │                   9│   12│        │22┌────────────┐     │
│   └──────────X─────────┘     └────X───┼──┤            ├     │
│                                       │  .    ВП1     .     │
│                                       │  .            .     │
│                                       │  .            .     │
│                                       │  ┤          ┌─┼ 1   │
│                                       │  └──────────┴─┘     │
││ │ │ │ │ │ │ │ │ │ │ │ │ │ │ │ │ │ │ ├┘│ │ │ │ │ │ │ │ │ │ ││
├┴─┴─┴─┴─┴─┴─┴─┴─┴─┴─┴─┴─┴─┴─┴─┴─┴─┴─┴─┴─┴─┴─┴─┴─┴─┴─┴─┴─┴─┴─┴┤
│1                                    A20                   32│
│                         РАЗЪЕМ МПИ                          │
└─────────────────────────────────────────────────────────────┘

 X   - детали удалить
-X-  - проводники разрезать
───  - новые соединения

     1. Удалить два резистора, кварцевый резонатор и конденса-
тор около ЛА3 (R, R, C, Q).
     2. Разрезать проводники, идущие от 9 ножки ТМ2 к 9  ножке
ТМ9 и от 12 ножки ТМ2 к 22 ножке ВП1.
     3. Соединить контакт А20 разъема МПИ с 22 ножкой ВП1 и  с
4 ножкой ЛА3.
     4. Соединить 6 ножку ЛА3 с 9 ножкой ТМ9.

ПРИЛОЖЕНИЕ 4.

Схема подключения мышки с 10-контактным разъемом к разъему УП
~~~~~~~~~~~~~~~~~~~~~~~~~~~~~~~~~~~~~~~~~~~~~~~~~~~~~~~~~~~~~
           B24  B23  A20       B10
            ↑    ↓   Кн1      сброс
            │    │    │         │
         ┌───────────────────┐┌────┐
         │  o    o    o    o └┘ o  │  ← Разъем мыши
         │                 │       │
         │  o    o    o    o    o  │
         └─────────────────────────┘
            │    │    │    │    │
            →    ←   Кн2   ┴   +5в
           A24  B17  B22   ↑     ↑A8,B8,A9,B9
                           │     └───────────
                           │A11,B11,A18,B18,A19,B19
                           └───────────────────────


ПРИЛОЖЕНИЕ 5.

                Строка инициализации принтера
                ~~~~~~~~~~~~~~~~~~~~~~~~~~~~~
     Disk MASTER позволяет задать строку инициализации принте-
ра, выдаваемую  на принтер перед печатью (команда IniSt во Vi-
ew'ере). Для передачи служебных кодов (0-37)  можно  использо-
вать символы  псевдографики  в соответствии с таблицей:

┌───┬──┬─────┬──────╥───┬──┬─────┬──────╥───┬──┬─────┬──────┐
│Имя│10│Сочет│Символ║Имя│10│Сочет│Символ║Имя│10│Сочет│Символ│
│   │  │клав.│      ║   │  │клав.│      ║   │  │клав.│      │
╞═══╪══╪═════╪══════╬═══╪══╪═════╪══════╬═══╪══╪═════╪══════╡
│NUL│ 0│АР2+@│ пи   ║ VT│11│АР2+K│  ┬   ║SYM│22│АР2+V│  ╫   │
│   │  │     │      ║   │  │     │      ║   │  │     │      │
│SOH│ 1│АР2+A│  ┴   ║ FF│12│АР2+L│  ╧   ║ETB│23│АР2+W│  │   │
│   │  │     │      ║   │  │     │      ║   │  │     │      │
│STX│ 2│АР2+B│ черва║ CR│13│АР2+M│ вниз ║CAN│24│АР2+X│ бубна│
│   │  │     │      ║   │  │     │      ║   │  │     │      │
│ETX│ 3│АР2+C│  ┐   ║ SO│14│АР2+N│  ┼   ║ EM│25│АР2+Y│  ┘   │
│   │  │     │      ║   │  │     │      ║   │  │     │      │
│EOT│ 4│АР2+D│  ╡   ║ SI│15│АР2+O│  ║   ║SUB│26│АР2+Z│  ╪   │
│   │  │     │      ║   │  │     │      ║   │  │     │      │
│ENQ│ 5│АР2+E│  ├   ║DLE│16│АР2+P│  ┤   ║ESC│27│АР2+[│  ╥   │
│   │  │     │      ║   │  │     │      ║   │  │     │      │
│ACK│ 6│АР2+F│  └   ║DC1│17│АР2+Q│  <-  ║ FS│28│АР2+/│  ╧   │
│   │  │     │      ║   │  │     │      ║   │  │     │      │
│BEL│ 7│АР2+G│  ═   ║DC2│18│АР2+R│  ╬   ║ GS│29│АР2+Э│  ╞   │
│   │  │     │      ║   │  │     │      ║   │  │     │      │
│ BS│ 8│АР2+H│  ╤   ║DC3│19│АР2+S│ вверх║ RS│30│АР2+Ч│  ->  │
│   │  │     │      ║   │  │     │      ║   │  │     │      │
│ HT│ 9│АР2+I│ пика ║DC4│20│АР2+T│крести║ US│31│АР2+Ъ│  ¶   │
│   │  │     │      ║   │  │     │      ║   │  │     │      │
│ LF│10│АР2+J│  ┌   ║NAK│21│АР2+U│  ─   ║   │  │     │      │
└───┴──┴─────┴──────╨───┴──┴─────┴──────╨───┴──┴─────┴──────┘
     Таким образом для того, чтобы дать, к примеру, код выбора
режима верхнего индекса (ESC S NUL - 27 83 0) необходимо  наб-
рать  строку,  состоящую  из трех символов:  "╧" (АР2+[) "S" и
"пи" (АР2+@),  а для отмены этого режима (ESC T) -  (АР2+[)  и
"T".


ПРИЛОЖЕНИЕ 6.


          Доработка контроллера дисковода БК0010-01
                 для работы Бейсика с диском.


     Перед установкой необходимо в контроллере отключить  кон-
такты A14 и A29 от +5В (А12), затем перерезать дорожки, идущие
от контактов B19 и A23 разъема  МПИ.  Микросхема  -  диспетчер
Бейсика устанавливается сверху на одной из микросхем  контрол-
лера (например на ТМ2) и подпаивается к ней выводами  питания.
Другие выводы отгибаются, и подключаются, согласно приведенной
схеме:

        1 вывод РЕ2-326 (РР1)    39 выв.
                │                ВП1-128 <──┬───> А14
         ┌──────│─┐     А23                +│
         │   ОБЩ│ │      │                  V
         │    │ │ │ ┌─┐ ┌┴┐1             VD2│
         │  ┌─┴─┴─┴─┴─┴─┴─┴─┐               └───> А29
         │  │    К555ЛА3   ═╡
         │  └─┬─┬─┬─┬─┬─┬─┬─┘
         └────│─┤ └─┘ └┬┘ │
   20 выв. <──┤ │      │ +5В
   ВП1-128   +│ │      │
              V │     B19
           VD1│ 38 выв.
              │ ВП1-128
             A1


     Для запуска Бейсика загрузите программу DBASIC.  Работа  с
дисковым Бейсиком описана в файле DBASIC.EDP.

ПРИЛОЖЕНИЕ 7.

             Подключение дисковода к контроллеру
             ~~~~~~~~~~~~~~~~~~~~~~~~~~~~~~~~~~~
     Дисковод подключается к контроллеру с помощью 34-жильного
плоского кабеля с разъемами ОНП-КГ-56-40-Р со стороны контрол-
лера, и ОНП-НГ-79-Р-МЭК со стороны дисковода. При этом  соеди-
нение осуществляется "один-в-один", т.е. 1 контакт к 1,  2  ко
2, 34 к 34. Последние 6 контактов разъема контроллера остаются
при этом незадействованными. Допустимо использование  27-жиль-
ного кабеля, в этом случае используются контакты 8-34.

Информационные разъемы дисковода и контроллера    Разъем пит.
┌────┬─────┬─────┬────────────────────────────┐  ┌────┬──────┐
│Конт│Сигн.│Напр.│   Назначение контакта      │  │Конт│Сигнал│
├────┼─────┼─────┼────────────────────────────┤  ├────┼──────┤
│  8 │ ИНД │  <  │ Индексный маркер           │  │ 1  │ +12В │
│ 10 │ ВН0 │  >  │ Выбор накопителя 0         │  ├────┼──────┤
│ 12 │ ВН1 │  >  │ Выбор накопителя 1         │  │ 2  │ ОБЩИЙ│
│ 16 │ МВК │  >  │ Включение электродвигателя │  ├────┼──────┤
│ 18 │ НПШ │  >  │ Направление шага           │  │ 3  │ ОБЩИЙ│
│ 20 │ ШАГ │  >  │ Шаг                        │  ├────┼──────┤
│ 22 │ ЗПД │  >  │ Данные записи              │  │ 4  │  +5В │
│ 24 │ РЗП │  >  │ Разрешение записи          │  └────┴──────┘
│ 26 │ Д00 │  <  │ Нулевая дорожка            │ Все  нечетные
│ 28 │ ЗЗП │  <  │ Запрет записи (защита)     │ контакты обо-
│ 30 │ ДЧТ │  <  │ Данные чтения              │ их информаци-
│ 32 │ ВП0 │  >  │ Сторона                    │ онных  разъе-
│ 34 │ ГОТ │  <  │ Готовность                 │ мов -  ОБЩИЙ.
└────┴─────┴─────┴────────────────────────────┘

          Расположение контактов разъемов дисковода:

       ┌──────────────────────────────────────┬──────┐
       │  ┌───────┐                           │▓▓▓▓▓▓│
       │  \1_2_3_4/   4 6          34         │▓▓▓▓▓▓│
       │ ─────────── ─═ ════════════ ┌────────┘▓▓▓▓▓▓│
       │              3 5          33│▓▓▓▓▓▓▓▓▓▓▓▓▓▓▓│
       │▓▓▓▓▓▓▓▓▓▓▓▓▓▓▓▓▓▓▓▓▓▓▓▓▓▓▓▓▓▓▓▓▓▓▓▓▓▓▓▓▓▓▓▓▓│
       └─────────────────────────────────────────────┘


ПРИЛОЖЕНИЕ 8.

  Подключение клавиатуры "Электроника МС7008.01" к БК0010.
  ~~~~~~~~~~~~~~~~~~~~~~~~~~~~~~~~~~~~~~~~~~~~~~~~~~~~~~~~
┌───────────────────┬───────────────────┬───────────────────┐
│МС7008.01   БК0010 │МС7008.01   БК0010 │МС7008.01   БК0010 │
│   ХТ1             │  ХТ2              │   ХТ3             │
├───────────────────┼───────────────────┼───────────────────┤
│    1   -   ХТ2.15 │                   │                   │
│    2   -   ХТ1.1  │    2   -   ХТ2.9  │    2   -   ХТ1.15 │
│    3   -   ХТ1.2  │    3   -   ХТ2.10 │    3   -   ХТ2.11 │
│    4   -   ХТ1.3  │    4   -   ХТ2.14 │    4   -   ХТ2.1  │
│    5   -   ХТ1.5  │    5   -   ХТ2.8  │    5   -   ХТ1.14 │
│    6   -   ХТ1.6  │    6   -   ХТ2.4  │    6   -   ХТ1.13 │
│    7   -   ХТ1.11 │    7   -   ХТ2.5  ├───────────────────┤
│    8   -   ХТ1.7  │    8   -   ХТ2.2  │  Звуковой сигнал  │
│    9   -   ХТ1.9  │    9   -   ХТ2.3  │                   │
│   10   -   ХТ1.10 │   10   -   ХТ2.7  │    ХТ2.12         │
│   11   -   ХТ1.4  │   11   -   ХТ2.6  │    ХТ2.8 (общ.)   │
│   12   -   ХТ1.8  │                   │                   │
└───────────────────┴───────────────────┴───────────────────┘


ПРИЛОЖЕНИЕ 9.

       Подключение к БК0011(M) музыкального сопроцессора
                  AY-3-8910 (YAMAHA YM2149F)
         (C) 1992, RDC Software. (C) 1995 А.М.Надежин


    Музыкальный процессор устанавливается внутрь корпуса  БК  с
помощью навесного монтажа. Эту работу сможет  проделать  только
радиолюбитель средней квалификации. Если Вы не уверены в  своих
силах - лучше не пытайтесь: у Вас большой шанс  испортить  свою
БКшку.
    Сам процессор лучше установить на панельке (тогда Вы сможе-
те для начала подключить панельку без процессора  и  убедиться,
что Ваша БКшка еще не сдохла от навешанных на нее соплей). Само
сабой разумеется, монтаж нужно осуществлять  низковольтным  па-
яльником, мощностью не более 25Вт.
    Панельку с муз. процессором удобно  расположить  справа  от
процессора БК, крепить ее совсем не обязательно: никуда она  не
денется. Две дополнительные микросхемы ставятся так: у них  од-
гибаются в стороны все выводы кроме выводов питания (7й и 14й),
которыми они припаиваются к   соответствующим   выводам   любых
14-ногих микросхем 555 серии, стоящих на плате БК. У  меня  ТМ2
стоит поверх D7, а ЛА3 - поверх D9. Резисторные делители удобно
припаять к широкой  земляной  дорожке,  проходящей  вертикально
слева платы где-то между панелькой Бейсика и реле. Монтаж лучше
вести тонкими мягкими многожильными проводами. Не забудьте изо-
лировать (например кусочками ПВХ-трубки (кембрика) все  подклю-
чения проводов к панельке муз. процессора. Неиспользуемые выво-
ды панельки лучше удалить, чтобы они чего-нибуть не  закоротили
на плате.

            ┌───┐    ┌───┐
D14:40 ←────┤1 &│  ┌─┤4 &│ К555ЛА3
          ┌─┤2 3о──┴─┤5 6о──┐  ┌──┬─────────┐
          │ └───┘    └───┘  └──┤29│BC1      │
D30:01 ←──┴────────────────────┤27│BDIR     │
                            ┌──┤40│Ucc      │
D35:16 ←────────────────────┼──┤25│CS1      │     10K     LEFT
          ↑ +5 В            └──┤28│BC2      │  ┌──####────┬──→
          ↓ ЗЕМЛЯ        ├──┬──┤01│GND    04├──┤  3.3K    │VD4
D35:08 ←────────────────────┴──о24│CS2      │  └──####──┤ │"+"
D35:01 ←───────────────────────о23│RESET    │     20K     │
D22:02 ←───────────────────────┤37│D0       │  ┌──####────┘
D22:05 ←───────────────────────┤36│D1       │  │  3.3K
D22:06 ←───────────────────────┤35│D2     03├──┼──####──┤
D22:09 ←───────────────────────┤34│D3       │  │  20K
D22:12 ←───────────────────────┤33│D4       │  └──####────┐
D22:15 ←───────────────────────┤32│D5       │     3.3K    │
D22:16 ←───────────────────────┤31│D6       │  ┌──####──┤ │"+"
D22:19 ←───────────────────────┤30│D7     38├──┤  10K     │VD5
                            ┌──┤22│CLC      │  └──####────┴──→
                K555TM2     │  └──┴─────────┘            RIGHT
              ┌──┬───┬─┐    │    AY-3-8910
D08:05 ←──────┤03│C Q│5│    │
            ┌─┤02│D  │6о─┐  │
            │ └──┴───┴─┘ │  │
            ├────────────┘  │
            │ ┌──┬───┬─┐    │
            └─┤11│C Q│9├────┘
            ┌─┤12│D  │8о─┐
            │ └──┴───┴─┘ │
            └────────────┘

    Теперь несколько слов о том, как найти микросхемы, к  кото-
рым подключается муз. процессор:
    D14 - процессор 1801ВМ1. 40 нога - 3я сверху, справа.
    D30 - K555ЛЕ1. 5я микросхема справа в нижнем ряду.
          1я нога - в верхнем левом углу.
    D35 - К555ТМ9. 8я микросхема справа в нижнем ряду.
    D22 - К555ИР23. Слева от процессора вертикально стоят две
          длинные 20-ногие микросхемы. Эта - верхняя.
    D08 - КР531ТВ9. Стоит вертикально слева от двух
          бочонков-конденсаторов в правой части платы.
    VD4,5 диоды (маленькие, стеклянные, полосатые). Стоят под
          разъемом МГ. Выходы с резисторов подключаются к их
          левым выводам.


    Стереосигнал берется с разъема магнитофона "МГ":

    4 - левый канал
    1 - правый канал
    2 - общий

    Выход у муз. процессора линейный, поэтому этот выход  нужно
подключать к внешнему стереоусилителю (магнитофону, муз.центру,
HI-FI усилителю, ламповому усилителю Audio Note за 10000 долла-
ров и проч.) или к АКТИВНЫМ колонкам (т.е. к таким,  в  которых
стоит свой усилитель, питающийся от батарейки).


ПРИЛОЖЕНИЕ 10.

     Подключение БК к цветному телевизору со входом SCART
     ~~~~~~~~~~~~~~~~~~~~~~~~~~~~~~~~~~~~~~~~~~~~~~~~~~~~
        30.01.95 г. Данилов Сергей г. Павловский Посад

                      ┌─→SINCO (16)
                 C1   │
                  ┌─║─┤             ┌───→SOUND (2)
                  │   │             │
                ══│═══│═════════════│══ 2
            20 →\ o o o o o o o o o o  ║
             21 →\ o o o o o o o o o o ║
                  ═════│═══│═══│═│═════ 1
                       │   │   │ └───→GND (5)
              (15) R←──┘   │   └──→B (7)
                           ↓
                           G (11)

            Таблица соответствия выводов разъемов:

  ┌─────────────────┬───────────────────┬──────────────────┐
  │     ФУНКЦИЯ     │       SCART       │      ЦТВ-БК      │
  ├─────────────────┼───────────────────┼──────────────────┤
  │     красный     │        15         │        3         │
  ├─────────────────┼───────────────────┼──────────────────┤
  │     синий       │         7         │        4         │
  ├─────────────────┼───────────────────┼──────────────────┤
  │     зеленый     │        11         │        5         │
  ├─────────────────┼───────────────────┼──────────────────┤
  │  синхронизация  │        16         │        1         │
  ├─────────────────┼───────────────────┼──────────────────┤
  │     масса       │         5         │        2         │
  ├─────────────────┼───────────────────┼──────────────────┤
  │     звук        │         2         │3 вывод разъема ТВ│
  └─────────────────┴───────────────────┴──────────────────┘
    Конденсатор подбирается отдельно для конкретного  телевизо-
ра. В случае SONY KV-M1400(01)  его  емкость  составляет  0,680
мкФ. Этот конденсатор помещается прямо в корпусе SCARTA и  дол-
жен быть подключен как можно более короткими проводами.


ПРИЛОЖЕНИЕ 11.

             Рекомендации по турбированию БК-0010
             ~~~~~~~~~~~~~~~~~~~~~~~~~~~~~~~~~~~~
          Разработаны Филиновым Сергеем (г. Казань).

1. Разорвать цепь D14/1-D8.2/9;
   Соединить D8.1/5-D14/1.
   Установить на процессор дополнительный радиатор. Для этого в
   старом радиаторе аккуратно сверлятся отверстия, и новый  ра-
   диатор (медная или алюминиевая пластинка  100х35  с  большим
   количеством сквозных отверстий) прикрепляется к старому вин-
   тами со стороны разъема МПИ.

2. Машина не запустилась.

   2.1. Закоротить R28.
   2.2. Увеличивать C8, подключая  параллельно ему дополнитель-
        ные емкости от 60 до 400 пф.
   2.3. Если пп. 2.1-2.2 не помогли, то:
        Переключить D8.2/13 с D8.1/5 на D8.1/1;
        При необходимости дополнительно выполнить пп. 2.1-2.2

   Если эти действия не привели к успеху - процессор не  турби-
   руется на 6МГц (это неудивительно  т.к.  паспортная  частота
   процесса - 5МГц). Тогда придется  собрать  внешний  тактовый
   генератор на МС К555ЛН1.

      ┌──────────┤├────────────┐
      |   1 КОм         1 КОм  |
      ├───▓▓▓▓───┐ ┌────▓▓▓▓───┤
      |          | |           |
      |  ┌────┐  | |   ┌────┐  |  ┌────┐     ┌────┐
      |  | 1  |  | |   | 1  |  |  | 1  |     | 1  |  D14/1
      └──┤    o──┴─┴───┤    o──┴──┤    o─────┤    o─────→
         |    | (a)    |    |     |    |     |    |
         └────┘        └────┘     └────┘     └────┘

   Емкость конденсатора - в пределах от 120  пф  (4.2  МГц)  до
   78 пф (4.83 МГц). В разрыв (а)  можно  установить  кварц  на
   4.8 Мгц, в этом случае емкость конденсатора порядка 300 пф.


3. Машина не запустилась.
   Возможные неприятности:
   3.1. Нет звука: выполнить п. 2.2.
   3.2. Зависание после 3-15 мин. работы: выполнить п. 2.1-2.2.
   3.3. Зависание после часа работы:  выполнить  п. 2.1, увели-
        чить площадь радиатора.
   3.4. Апериодические зависания, в течение 3-4 часов работы:
        Заземлить радиатор на "-" шины питания; заменить ТОЛЬКО
        элемент D3.2 (155ТМ2 на 531ТМ1).
   3.5. Реакция на любую  клавишу как на клавишу "СТОП": выпол-
        нить п. 2.3.

   Если все действия не привели к нормальной работе - турби-
    рование на 6МГц не удалось. Попробуйте меньшую частоту.


ПРИЛОЖЕНИЕ 12.
                  Схема турбирования БК0011М
                  ~~~~~~~~~~~~~~~~~~~~~~~~~~
─────────────────────────────────┬──────────────────
                               62│
                                 │  ┌──┬───┬──┐
   ──┬──┐5                       │  │  │ T │  │
     │T ├────┐                   │  │  │   │  │
     │  │    │                   │ 9│  │   │  │
     │  │    │                   ├──→ C│   │  │
   ──┴──┘    │                   │  │  │D11│  │
    D8.1     │                   │  └──┴───┴──┘
             │                   │               │   │CPU│
             │                   │               │   │   │
             │        6MHz   SA1 │             1 │   │   │
             @------------  .----@───────────────┤CLC│D14│
    D39      │       ┌---- /     │               └───┴───┘
   ─┬───┐9   │       |4MHz       │
    │   ├────┼───────@...........@
    │   │    │                   │    ---  Новые соединения
    │   │    │                   │    ─@─  Место соединения
    │   │    ↓                   ↓    ...  Старые соединения

Примечание: Единственным недостатком схемы является отсутствие
            возможности работы в режиме 6МГц с синхонизирован-
            ным от компьютера контроллером НГМД.


ПРИЛОЖЕНИЕ 13.

              Другой вариант турбирования БК0011М
              ~~~~~~~~~~~~~~~~~~~~~~~~~~~~~~~~~~~
           Схема подключения кнопки останова БК0011М
           ~~~~~~~~~~~~~~~~~~~~~~~~~~~~~~~~~~~~~~~~~
            (C) Данилов Сергей г. Павловский Посад

    Если вы хотите иметь два режима работы процессора : 4  и  6
МГц , то обязательно потребуется сделать и кнопку паузы (вторая
схема) , в противном случае при переключении процессора на тур-
бированный режим машина повиснет.
    Однако не все партии процессоров у БэКашек хорошо  турбиру-
ются, ведь их паспортная частота 5МГц. Путем введения  дополни-
тельного делителя (схема 1) удается немного обособить  тактовую
частоту , что приводит к уничтожению многих глюков  ,  присущих
другим схемам , например , в турбо-режиме машина нормально  ра-
ботает с дисководом (естественно скорость  перехода  головки  с
дорожки на дорожку повышается).
    Кнопку SA2 и переключатель SA1 лучше всего располагать  не-
далеко друг от друга , тогда вы сможете производить  переключе-
ние одной рукой. И не забудьте подать питание на 7 и  14  ножку
доп. микросхемы.
"""""""""""""""""""""""""""""""""""""""""""""""""""""""""""""""

   Телефон:        (095)180-3002, Алексей
                   ВТ,ЧТ 19:00-23:00 СБ,ВС 12:00-23:00

   Почтовый адрес: 129329, Москва, а/я 103,
                   Надежину Алексею Михайловичу

   FidoNet:        2:5020/754.9, 2:5020/189.32

   E-Mail:         andos@p9.f754.n5020.z2.fidonet.org
                   andos@dataforce.net

   WWW:            http://www.dataforce.net/~andos

"""""""""""""""""""""""""""""""""""""""""""""""""""""""""""""""

                                      (C) 15.6.1997 А.М.Надежин

---------------------------------------------------------------
    Желаю Вам успешной и плодотворной работы с ANDOS V3.30
---------------------------------------------------------------